
04 December 2014 ************************************************LOG  LOG ****************************************************************

The statement terminated. The maximum recursion 100 has been exhausted before statement completion. Stack Trace ------------->>    at System.Data.SqlClient.SqlConnection.OnError(SqlException exception, Boolean breakConnection, Action`1 wrapCloseInAction)
   at System.Data.SqlClient.TdsParser.ThrowExceptionAndWarning(TdsParserStateObject stateObj, Boolean callerHasConnectionLock, Boolean asyncClose)
   at System.Data.SqlClient.TdsParser.TryRun(RunBehavior runBehavior, SqlCommand cmdHandler, SqlDataReader dataStream, BulkCopySimpleResultSet bulkCopyHandler, TdsParserStateObject stateObj, Boolean& dataReady)
   at System.Data.SqlClient.SqlDataReader.TryHasMoreRows(Boolean& moreRows)
   at System.Data.SqlClient.SqlDataReader.TryReadInternal(Boolean setTimeout, Boolean& more)
   at System.Data.SqlClient.SqlDataReader.Read()
   at System.Data.Common.DataAdapter.FillLoadDataRow(SchemaMapping mapping)
   at System.Data.Common.DataAdapter.FillFromReader(DataSet dataset, DataTable datatable, String srcTable, DataReaderContainer dataReader, Int32 startRecord, Int32 maxRecords, DataColumn parentChapterColumn, Object parentChapterValue)
   at System.Data.Common.DataAdapter.Fill(DataSet dataSet, String srcTable, IDataReader dataReader, Int32 startRecord, Int32 maxRecords)
   at System.Data.Common.DbDataAdapter.FillInternal(DataSet dataset, DataTable[] datatables, Int32 startRecord, Int32 maxRecords, String srcTable, IDbCommand command, CommandBehavior behavior)
   at System.Data.Common.DbDataAdapter.Fill(DataSet dataSet, Int32 startRecord, Int32 maxRecords, String srcTable, IDbCommand command, CommandBehavior behavior)
   at System.Data.Common.DbDataAdapter.Fill(DataSet dataSet)
   at Microsoft.ApplicationBlocks.Data.SqlHelper.ExecuteDataset(SqlConnection connection, CommandType commandType, String commandText, SqlParameter[] commandParameters)
   at Microsoft.ApplicationBlocks.Data.SqlHelper.ExecuteDataset(String connectionString, CommandType commandType, String commandText, SqlParameter[] commandParameters)
   at HR.Human.Resources.EmployeeDAL.GetAll(Int32 orgUnitId, Boolean active)
   at HR.Human.Resources.EmployeeBL.GetByOrgStructure(Int32 orgUnitId, Boolean active)
   at scorecard.ui.controls.employees.FillEmployees() Source ------->>.Net SqlClient Data Provider Inner Exception ------- >>
 *******************************************************************************************************************
04 December 2014 ************************************************LOG  LOG ****************************************************************

The statement terminated. The maximum recursion 100 has been exhausted before statement completion. Stack Trace ------------->>    at System.Data.SqlClient.SqlConnection.OnError(SqlException exception, Boolean breakConnection, Action`1 wrapCloseInAction)
   at System.Data.SqlClient.TdsParser.ThrowExceptionAndWarning(TdsParserStateObject stateObj, Boolean callerHasConnectionLock, Boolean asyncClose)
   at System.Data.SqlClient.TdsParser.TryRun(RunBehavior runBehavior, SqlCommand cmdHandler, SqlDataReader dataStream, BulkCopySimpleResultSet bulkCopyHandler, TdsParserStateObject stateObj, Boolean& dataReady)
   at System.Data.SqlClient.SqlDataReader.TryHasMoreRows(Boolean& moreRows)
   at System.Data.SqlClient.SqlDataReader.TryReadInternal(Boolean setTimeout, Boolean& more)
   at System.Data.SqlClient.SqlDataReader.Read()
   at System.Data.Common.DataAdapter.FillLoadDataRow(SchemaMapping mapping)
   at System.Data.Common.DataAdapter.FillFromReader(DataSet dataset, DataTable datatable, String srcTable, DataReaderContainer dataReader, Int32 startRecord, Int32 maxRecords, DataColumn parentChapterColumn, Object parentChapterValue)
   at System.Data.Common.DataAdapter.Fill(DataSet dataSet, String srcTable, IDataReader dataReader, Int32 startRecord, Int32 maxRecords)
   at System.Data.Common.DbDataAdapter.FillInternal(DataSet dataset, DataTable[] datatables, Int32 startRecord, Int32 maxRecords, String srcTable, IDbCommand command, CommandBehavior behavior)
   at System.Data.Common.DbDataAdapter.Fill(DataSet dataSet, Int32 startRecord, Int32 maxRecords, String srcTable, IDbCommand command, CommandBehavior behavior)
   at System.Data.Common.DbDataAdapter.Fill(DataSet dataSet)
   at Microsoft.ApplicationBlocks.Data.SqlHelper.ExecuteDataset(SqlConnection connection, CommandType commandType, String commandText, SqlParameter[] commandParameters)
   at Microsoft.ApplicationBlocks.Data.SqlHelper.ExecuteDataset(String connectionString, CommandType commandType, String commandText, SqlParameter[] commandParameters)
   at HR.Human.Resources.EmployeeDAL.GetAll(Int32 orgUnitId, Boolean active)
   at HR.Human.Resources.EmployeeBL.GetByOrgStructure(Int32 orgUnitId, Boolean active)
   at scorecard.ui.controls.employees.FillEmployees() Source ------->>.Net SqlClient Data Provider Inner Exception ------- >>
 *******************************************************************************************************************
04 December 2014 ************************************************LOG  LOG ****************************************************************

The statement terminated. The maximum recursion 100 has been exhausted before statement completion. Stack Trace ------------->>    at System.Data.SqlClient.SqlConnection.OnError(SqlException exception, Boolean breakConnection, Action`1 wrapCloseInAction)
   at System.Data.SqlClient.TdsParser.ThrowExceptionAndWarning(TdsParserStateObject stateObj, Boolean callerHasConnectionLock, Boolean asyncClose)
   at System.Data.SqlClient.TdsParser.TryRun(RunBehavior runBehavior, SqlCommand cmdHandler, SqlDataReader dataStream, BulkCopySimpleResultSet bulkCopyHandler, TdsParserStateObject stateObj, Boolean& dataReady)
   at System.Data.SqlClient.SqlDataReader.TryHasMoreRows(Boolean& moreRows)
   at System.Data.SqlClient.SqlDataReader.TryReadInternal(Boolean setTimeout, Boolean& more)
   at System.Data.SqlClient.SqlDataReader.Read()
   at System.Data.Common.DataAdapter.FillLoadDataRow(SchemaMapping mapping)
   at System.Data.Common.DataAdapter.FillFromReader(DataSet dataset, DataTable datatable, String srcTable, DataReaderContainer dataReader, Int32 startRecord, Int32 maxRecords, DataColumn parentChapterColumn, Object parentChapterValue)
   at System.Data.Common.DataAdapter.Fill(DataSet dataSet, String srcTable, IDataReader dataReader, Int32 startRecord, Int32 maxRecords)
   at System.Data.Common.DbDataAdapter.FillInternal(DataSet dataset, DataTable[] datatables, Int32 startRecord, Int32 maxRecords, String srcTable, IDbCommand command, CommandBehavior behavior)
   at System.Data.Common.DbDataAdapter.Fill(DataSet dataSet, Int32 startRecord, Int32 maxRecords, String srcTable, IDbCommand command, CommandBehavior behavior)
   at System.Data.Common.DbDataAdapter.Fill(DataSet dataSet)
   at Microsoft.ApplicationBlocks.Data.SqlHelper.ExecuteDataset(SqlConnection connection, CommandType commandType, String commandText, SqlParameter[] commandParameters)
   at Microsoft.ApplicationBlocks.Data.SqlHelper.ExecuteDataset(String connectionString, CommandType commandType, String commandText, SqlParameter[] commandParameters)
   at HR.Human.Resources.EmployeeDAL.GetAll(Int32 orgUnitId, Boolean active)
   at HR.Human.Resources.EmployeeBL.GetByOrgStructure(Int32 orgUnitId, Boolean active)
   at scorecard.ui.controls.employees.FillEmployees() Source ------->>.Net SqlClient Data Provider Inner Exception ------- >>
 *******************************************************************************************************************
04 December 2014 ************************************************LOG  LOG ****************************************************************

Object reference not set to an instance of an object. Stack Trace ------------->>    at scorecard.ui.controls.menu.loadMenus() Source ------->>scorecard Inner Exception ------- >>
 *******************************************************************************************************************
04 December 2014 ************************************************LOG  LOG ****************************************************************

The statement terminated. The maximum recursion 100 has been exhausted before statement completion. Stack Trace ------------->>    at System.Data.SqlClient.SqlConnection.OnError(SqlException exception, Boolean breakConnection, Action`1 wrapCloseInAction)
   at System.Data.SqlClient.TdsParser.ThrowExceptionAndWarning(TdsParserStateObject stateObj, Boolean callerHasConnectionLock, Boolean asyncClose)
   at System.Data.SqlClient.TdsParser.TryRun(RunBehavior runBehavior, SqlCommand cmdHandler, SqlDataReader dataStream, BulkCopySimpleResultSet bulkCopyHandler, TdsParserStateObject stateObj, Boolean& dataReady)
   at System.Data.SqlClient.SqlDataReader.TryHasMoreRows(Boolean& moreRows)
   at System.Data.SqlClient.SqlDataReader.TryReadInternal(Boolean setTimeout, Boolean& more)
   at System.Data.SqlClient.SqlDataReader.Read()
   at System.Data.Common.DataAdapter.FillLoadDataRow(SchemaMapping mapping)
   at System.Data.Common.DataAdapter.FillFromReader(DataSet dataset, DataTable datatable, String srcTable, DataReaderContainer dataReader, Int32 startRecord, Int32 maxRecords, DataColumn parentChapterColumn, Object parentChapterValue)
   at System.Data.Common.DataAdapter.Fill(DataSet dataSet, String srcTable, IDataReader dataReader, Int32 startRecord, Int32 maxRecords)
   at System.Data.Common.DbDataAdapter.FillInternal(DataSet dataset, DataTable[] datatables, Int32 startRecord, Int32 maxRecords, String srcTable, IDbCommand command, CommandBehavior behavior)
   at System.Data.Common.DbDataAdapter.Fill(DataSet dataSet, Int32 startRecord, Int32 maxRecords, String srcTable, IDbCommand command, CommandBehavior behavior)
   at System.Data.Common.DbDataAdapter.Fill(DataSet dataSet)
   at Microsoft.ApplicationBlocks.Data.SqlHelper.ExecuteDataset(SqlConnection connection, CommandType commandType, String commandText, SqlParameter[] commandParameters)
   at Microsoft.ApplicationBlocks.Data.SqlHelper.ExecuteDataset(String connectionString, CommandType commandType, String commandText, SqlParameter[] commandParameters)
   at HR.Human.Resources.EmployeeDAL.GetAll(Int32 orgUnitId, Boolean active)
   at HR.Human.Resources.EmployeeBL.GetByOrgStructure(Int32 orgUnitId, Boolean active)
   at scorecard.ui.controls.employees.FillEmployees() Source ------->>.Net SqlClient Data Provider Inner Exception ------- >>
 *******************************************************************************************************************
04 December 2014 ************************************************LOG  LOG ****************************************************************

The statement terminated. The maximum recursion 100 has been exhausted before statement completion. Stack Trace ------------->>    at System.Data.SqlClient.SqlConnection.OnError(SqlException exception, Boolean breakConnection, Action`1 wrapCloseInAction)
   at System.Data.SqlClient.TdsParser.ThrowExceptionAndWarning(TdsParserStateObject stateObj, Boolean callerHasConnectionLock, Boolean asyncClose)
   at System.Data.SqlClient.TdsParser.TryRun(RunBehavior runBehavior, SqlCommand cmdHandler, SqlDataReader dataStream, BulkCopySimpleResultSet bulkCopyHandler, TdsParserStateObject stateObj, Boolean& dataReady)
   at System.Data.SqlClient.SqlDataReader.TryHasMoreRows(Boolean& moreRows)
   at System.Data.SqlClient.SqlDataReader.TryReadInternal(Boolean setTimeout, Boolean& more)
   at System.Data.SqlClient.SqlDataReader.Read()
   at System.Data.Common.DataAdapter.FillLoadDataRow(SchemaMapping mapping)
   at System.Data.Common.DataAdapter.FillFromReader(DataSet dataset, DataTable datatable, String srcTable, DataReaderContainer dataReader, Int32 startRecord, Int32 maxRecords, DataColumn parentChapterColumn, Object parentChapterValue)
   at System.Data.Common.DataAdapter.Fill(DataSet dataSet, String srcTable, IDataReader dataReader, Int32 startRecord, Int32 maxRecords)
   at System.Data.Common.DbDataAdapter.FillInternal(DataSet dataset, DataTable[] datatables, Int32 startRecord, Int32 maxRecords, String srcTable, IDbCommand command, CommandBehavior behavior)
   at System.Data.Common.DbDataAdapter.Fill(DataSet dataSet, Int32 startRecord, Int32 maxRecords, String srcTable, IDbCommand command, CommandBehavior behavior)
   at System.Data.Common.DbDataAdapter.Fill(DataSet dataSet)
   at Microsoft.ApplicationBlocks.Data.SqlHelper.ExecuteDataset(SqlConnection connection, CommandType commandType, String commandText, SqlParameter[] commandParameters)
   at Microsoft.ApplicationBlocks.Data.SqlHelper.ExecuteDataset(String connectionString, CommandType commandType, String commandText, SqlParameter[] commandParameters)
   at HR.Human.Resources.EmployeeDAL.GetAll(Int32 orgUnitId, Boolean active)
   at HR.Human.Resources.EmployeeBL.GetByOrgStructure(Int32 orgUnitId, Boolean active)
   at scorecard.ui.controls.employees.FillEmployees() Source ------->>.Net SqlClient Data Provider Inner Exception ------- >>
 *******************************************************************************************************************
04 December 2014 ************************************************LOG  LOG ****************************************************************

Index was out of range. Must be non-negative and less than the size of the collection.
Parameter name: index Stack Trace ------------->>    at System.Collections.ArrayList.get_Item(Int32 index)
   at scorecard.ui.controls.bulkupload.uploadFile.UploadFile() Source ------->>mscorlib Inner Exception ------- >>
 *******************************************************************************************************************
08 December 2014 ************************************************LOG  LOG ****************************************************************

Object reference not set to an instance of an object. Stack Trace ------------->>    at scorecard.ui.controls.menu.loadMenus() Source ------->>scorecard Inner Exception ------- >>
 *******************************************************************************************************************
08 December 2014 ************************************************LOG  LOG ****************************************************************

Object reference not set to an instance of an object. Stack Trace ------------->>    at scorecard.ui.controls.menu.loadMenus() Source ------->>scorecard Inner Exception ------- >>
 *******************************************************************************************************************
12 December 2014 ************************************************LOG  LOG ****************************************************************

Object reference not set to an instance of an object. Stack Trace ------------->>    at scorecard.ui.controls.menu.loadMenus() Source ------->>scorecard Inner Exception ------- >>
 *******************************************************************************************************************
13 January 2015 ************************************************LOG  LOG ****************************************************************

Invalid attempt to read when no data is present. Stack Trace ------------->>    at System.Data.SqlClient.SqlDataReader.CheckDataIsReady(Int32 columnIndex, Boolean allowPartiallyReadColumn, Boolean permitAsync, String methodName)
   at System.Data.SqlClient.SqlDataReader.TryReadColumn(Int32 i, Boolean setTimeout, Boolean allowPartiallyReadColumn)
   at System.Data.SqlClient.SqlDataReader.GetValueInternal(Int32 i)
   at System.Data.SqlClient.SqlDataReader.GetValue(Int32 i)
   at scorecard.implementations.companyImpl.getCompanyAccountDetails(Int32 companyId) Source ------->>System.Data Inner Exception ------- >>
 *******************************************************************************************************************
13 January 2015 ************************************************LOG  LOG ****************************************************************

Input string was not in a correct format. Stack Trace ------------->>    at System.Number.StringToNumber(String str, NumberStyles options, NumberBuffer& number, NumberFormatInfo info, Boolean parseDecimal)
   at System.Number.ParseInt32(String s, NumberStyles style, NumberFormatInfo info)
   at scorecard.ui.controls.strategic.updateObjectives(ListViewCommandEventArgs e) Source ------->>mscorlib Inner Exception ------- >>
 *******************************************************************************************************************
13 January 2015 ************************************************LOG  LOG ****************************************************************

Input string was not in a correct format. Stack Trace ------------->>    at System.Number.StringToNumber(String str, NumberStyles options, NumberBuffer& number, NumberFormatInfo info, Boolean parseDecimal)
   at System.Number.ParseInt32(String s, NumberStyles style, NumberFormatInfo info)
   at scorecard.ui.controls.strategic.updateObjectives(ListViewCommandEventArgs e) Source ------->>mscorlib Inner Exception ------- >>
 *******************************************************************************************************************
13 January 2015 ************************************************LOG  LOG ****************************************************************

Input string was not in a correct format. Stack Trace ------------->>    at System.Number.StringToNumber(String str, NumberStyles options, NumberBuffer& number, NumberFormatInfo info, Boolean parseDecimal)
   at System.Number.ParseInt32(String s, NumberStyles style, NumberFormatInfo info)
   at scorecard.ui.controls.strategic.updateObjectives(ListViewCommandEventArgs e) Source ------->>mscorlib Inner Exception ------- >>
 *******************************************************************************************************************
13 January 2015 ************************************************LOG  LOG ****************************************************************

Input string was not in a correct format. Stack Trace ------------->>    at System.Number.StringToNumber(String str, NumberStyles options, NumberBuffer& number, NumberFormatInfo info, Boolean parseDecimal)
   at System.Number.ParseInt32(String s, NumberStyles style, NumberFormatInfo info)
   at scorecard.ui.controls.strategic.updateObjectives(ListViewCommandEventArgs e) Source ------->>mscorlib Inner Exception ------- >>
 *******************************************************************************************************************
13 January 2015 ************************************************LOG  LOG ****************************************************************

Value cannot be null.
Parameter name: source Stack Trace ------------->>    at System.Linq.Enumerable.Where[TSource](IEnumerable`1 source, Func`2 predicate)
   at scorecard.ui.controls.goalwithhirachy.loadGoals(Boolean reload) Source ------->>System.Core Inner Exception ------- >>
 *******************************************************************************************************************
13 January 2015 ************************************************LOG  LOG ****************************************************************

Value cannot be null.
Parameter name: source Stack Trace ------------->>    at System.Linq.Enumerable.Where[TSource](IEnumerable`1 source, Func`2 predicate)
   at scorecard.ui.controls.goalwithhirachy.loadGoals(Boolean reload) Source ------->>System.Core Inner Exception ------- >>
 *******************************************************************************************************************
15 January 2015 ************************************************LOG  LOG ****************************************************************

Object reference not set to an instance of an object. Stack Trace ------------->>    at scorecard.ui.controls.menu.loadMenus() Source ------->>scorecard Inner Exception ------- >>
 *******************************************************************************************************************
16 January 2015 ************************************************LOG  LOG ****************************************************************

Index was out of range. Must be non-negative and less than the size of the collection.
Parameter name: index Stack Trace ------------->>    at System.Collections.ArrayList.get_Item(Int32 index)
   at scorecard.ui.controls.bulkupload.uploadFile.UploadFile() Source ------->>mscorlib Inner Exception ------- >>
 *******************************************************************************************************************
16 January 2015 ************************************************LOG  LOG ****************************************************************

Parameter count does not match Parameter Value count. Stack Trace ------------->>    at Microsoft.ApplicationBlocks.Data.SqlHelper.AssignParameterValues(SqlParameter[] commandParameters, Object[] parameterValues)
   at Microsoft.ApplicationBlocks.Data.SqlHelper.ExecuteScalar(SqlConnection connection, String spName, Object[] parameterValues)
   at scorecard.implementations.scoresImpl.scoreDateAlreadyExist(Int32 criteriaId, Int32 itemValueId, Int32 submissionId, String periodDate) Source ------->>scorecard Inner Exception ------- >>
 *******************************************************************************************************************
16 January 2015 ************************************************LOG  LOG ****************************************************************

Object reference not set to an instance of an object. Stack Trace ------------->>    at scorecard.implementations.scoresImpl.scoreDateAlreadyExist(Int32 criteriaId, Int32 itemValueId, Int32 submissionId, String periodDate)
   at scorecard.ui.controls.capturewithhirachy.dateAlreadyCaptured(Int32 submissionId, String periodDate, Int32 criteriaId, Int32 itemValId)
   at scorecard.ui.controls.capturewithhirachy.calculateValues(Boolean saveForLater) Source ------->>scorecard Inner Exception ------- >>
 *******************************************************************************************************************
16 January 2015 ************************************************LOG  LOG ****************************************************************

Parameter count does not match Parameter Value count. Stack Trace ------------->>    at Microsoft.ApplicationBlocks.Data.SqlHelper.AssignParameterValues(SqlParameter[] commandParameters, Object[] parameterValues)
   at Microsoft.ApplicationBlocks.Data.SqlHelper.ExecuteScalar(SqlConnection connection, String spName, Object[] parameterValues)
   at scorecard.implementations.scoresImpl.scoreDateAlreadyExist(Int32 criteriaId, Int32 itemValueId, Int32 submissionId, String periodDate) Source ------->>scorecard Inner Exception ------- >>
 *******************************************************************************************************************
16 January 2015 ************************************************LOG  LOG ****************************************************************

Object reference not set to an instance of an object. Stack Trace ------------->>    at scorecard.implementations.scoresImpl.scoreDateAlreadyExist(Int32 criteriaId, Int32 itemValueId, Int32 submissionId, String periodDate)
   at scorecard.ui.controls.capturewithhirachy.dateAlreadyCaptured(Int32 submissionId, String periodDate, Int32 criteriaId, Int32 itemValId)
   at scorecard.ui.controls.capturewithhirachy.calculateValues(Boolean saveForLater) Source ------->>scorecard Inner Exception ------- >>
 *******************************************************************************************************************
16 January 2015 ************************************************LOG  LOG ****************************************************************

Parameter count does not match Parameter Value count. Stack Trace ------------->>    at Microsoft.ApplicationBlocks.Data.SqlHelper.AssignParameterValues(SqlParameter[] commandParameters, Object[] parameterValues)
   at Microsoft.ApplicationBlocks.Data.SqlHelper.ExecuteScalar(SqlConnection connection, String spName, Object[] parameterValues)
   at scorecard.implementations.scoresImpl.scoreDateAlreadyExist(Int32 criteriaId, Int32 itemValueId, Int32 submissionId, String periodDate) Source ------->>scorecard Inner Exception ------- >>
 *******************************************************************************************************************
16 January 2015 ************************************************LOG  LOG ****************************************************************

Object reference not set to an instance of an object. Stack Trace ------------->>    at scorecard.implementations.scoresImpl.scoreDateAlreadyExist(Int32 criteriaId, Int32 itemValueId, Int32 submissionId, String periodDate)
   at scorecard.ui.controls.capturewithhirachy.dateAlreadyCaptured(Int32 submissionId, String periodDate, Int32 criteriaId, Int32 itemValId)
   at scorecard.ui.controls.capturewithhirachy.calculateValues(Boolean saveForLater) Source ------->>scorecard Inner Exception ------- >>
 *******************************************************************************************************************
16 January 2015 ************************************************LOG  LOG ****************************************************************

Parameter count does not match Parameter Value count. Stack Trace ------------->>    at Microsoft.ApplicationBlocks.Data.SqlHelper.AssignParameterValues(SqlParameter[] commandParameters, Object[] parameterValues)
   at Microsoft.ApplicationBlocks.Data.SqlHelper.ExecuteScalar(SqlConnection connection, String spName, Object[] parameterValues)
   at scorecard.implementations.scoresImpl.scoreDateAlreadyExist(Int32 criteriaId, Int32 itemValueId, Int32 submissionId, String periodDate) Source ------->>scorecard Inner Exception ------- >>
 *******************************************************************************************************************
16 January 2015 ************************************************LOG  LOG ****************************************************************

Object reference not set to an instance of an object. Stack Trace ------------->>    at scorecard.implementations.scoresImpl.scoreDateAlreadyExist(Int32 criteriaId, Int32 itemValueId, Int32 submissionId, String periodDate)
   at scorecard.ui.controls.capturewithhirachy.dateAlreadyCaptured(Int32 submissionId, String periodDate, Int32 criteriaId, Int32 itemValId)
   at scorecard.ui.controls.capturewithhirachy.calculateValues(Boolean saveForLater) Source ------->>scorecard Inner Exception ------- >>
 *******************************************************************************************************************
16 January 2015 ************************************************LOG  LOG ****************************************************************

Parameter count does not match Parameter Value count. Stack Trace ------------->>    at Microsoft.ApplicationBlocks.Data.SqlHelper.AssignParameterValues(SqlParameter[] commandParameters, Object[] parameterValues)
   at Microsoft.ApplicationBlocks.Data.SqlHelper.ExecuteScalar(SqlConnection connection, String spName, Object[] parameterValues)
   at scorecard.implementations.scoresImpl.scoreDateAlreadyExist(Int32 criteriaId, Int32 itemValueId, Int32 submissionId, String periodDate) Source ------->>scorecard Inner Exception ------- >>
 *******************************************************************************************************************
16 January 2015 ************************************************LOG  LOG ****************************************************************

Object reference not set to an instance of an object. Stack Trace ------------->>    at scorecard.implementations.scoresImpl.scoreDateAlreadyExist(Int32 criteriaId, Int32 itemValueId, Int32 submissionId, String periodDate)
   at scorecard.ui.controls.capturewithhirachy.dateAlreadyCaptured(Int32 submissionId, String periodDate, Int32 criteriaId, Int32 itemValId)
   at scorecard.ui.controls.capturewithhirachy.calculateValues(Boolean saveForLater) Source ------->>scorecard Inner Exception ------- >>
 *******************************************************************************************************************
16 January 2015 ************************************************LOG  LOG ****************************************************************

Parameter count does not match Parameter Value count. Stack Trace ------------->>    at Microsoft.ApplicationBlocks.Data.SqlHelper.AssignParameterValues(SqlParameter[] commandParameters, Object[] parameterValues)
   at Microsoft.ApplicationBlocks.Data.SqlHelper.ExecuteScalar(SqlConnection connection, String spName, Object[] parameterValues)
   at scorecard.implementations.scoresImpl.scoreDateAlreadyExist(Int32 criteriaId, Int32 itemValueId, Int32 submissionId, String periodDate) Source ------->>scorecard Inner Exception ------- >>
 *******************************************************************************************************************
16 January 2015 ************************************************LOG  LOG ****************************************************************

Object reference not set to an instance of an object. Stack Trace ------------->>    at scorecard.implementations.scoresImpl.scoreDateAlreadyExist(Int32 criteriaId, Int32 itemValueId, Int32 submissionId, String periodDate)
   at scorecard.ui.controls.capturewithhirachy.dateAlreadyCaptured(Int32 submissionId, String periodDate, Int32 criteriaId, Int32 itemValId)
   at scorecard.ui.controls.capturewithhirachy.calculateValues(Boolean saveForLater) Source ------->>scorecard Inner Exception ------- >>
 *******************************************************************************************************************
16 January 2015 ************************************************LOG  LOG ****************************************************************

Parameter count does not match Parameter Value count. Stack Trace ------------->>    at Microsoft.ApplicationBlocks.Data.SqlHelper.AssignParameterValues(SqlParameter[] commandParameters, Object[] parameterValues)
   at Microsoft.ApplicationBlocks.Data.SqlHelper.ExecuteScalar(SqlConnection connection, String spName, Object[] parameterValues)
   at scorecard.implementations.scoresImpl.scoreDateAlreadyExist(Int32 criteriaId, Int32 itemValueId, Int32 submissionId, String periodDate) Source ------->>scorecard Inner Exception ------- >>
 *******************************************************************************************************************
16 January 2015 ************************************************LOG  LOG ****************************************************************

Object reference not set to an instance of an object. Stack Trace ------------->>    at scorecard.implementations.scoresImpl.scoreDateAlreadyExist(Int32 criteriaId, Int32 itemValueId, Int32 submissionId, String periodDate)
   at scorecard.ui.controls.capturewithhirachy.dateAlreadyCaptured(Int32 submissionId, String periodDate, Int32 criteriaId, Int32 itemValId)
   at scorecard.ui.controls.capturewithhirachy.calculateValues(Boolean saveForLater) Source ------->>scorecard Inner Exception ------- >>
 *******************************************************************************************************************
16 January 2015 ************************************************LOG  LOG ****************************************************************

Parameter count does not match Parameter Value count. Stack Trace ------------->>    at Microsoft.ApplicationBlocks.Data.SqlHelper.AssignParameterValues(SqlParameter[] commandParameters, Object[] parameterValues)
   at Microsoft.ApplicationBlocks.Data.SqlHelper.ExecuteScalar(SqlConnection connection, String spName, Object[] parameterValues)
   at scorecard.implementations.scoresImpl.scoreDateAlreadyExist(Int32 criteriaId, Int32 itemValueId, Int32 submissionId, String periodDate) Source ------->>scorecard Inner Exception ------- >>
 *******************************************************************************************************************
16 January 2015 ************************************************LOG  LOG ****************************************************************

Object reference not set to an instance of an object. Stack Trace ------------->>    at scorecard.implementations.scoresImpl.scoreDateAlreadyExist(Int32 criteriaId, Int32 itemValueId, Int32 submissionId, String periodDate)
   at scorecard.ui.controls.capturewithhirachy.dateAlreadyCaptured(Int32 submissionId, String periodDate, Int32 criteriaId, Int32 itemValId)
   at scorecard.ui.controls.capturewithhirachy.calculateValues(Boolean saveForLater) Source ------->>scorecard Inner Exception ------- >>
 *******************************************************************************************************************
16 January 2015 ************************************************LOG  LOG ****************************************************************

Parameter count does not match Parameter Value count. Stack Trace ------------->>    at Microsoft.ApplicationBlocks.Data.SqlHelper.AssignParameterValues(SqlParameter[] commandParameters, Object[] parameterValues)
   at Microsoft.ApplicationBlocks.Data.SqlHelper.ExecuteScalar(SqlConnection connection, String spName, Object[] parameterValues)
   at scorecard.implementations.scoresImpl.scoreDateAlreadyExist(Int32 criteriaId, Int32 itemValueId, Int32 submissionId, String periodDate) Source ------->>scorecard Inner Exception ------- >>
 *******************************************************************************************************************
16 January 2015 ************************************************LOG  LOG ****************************************************************

Object reference not set to an instance of an object. Stack Trace ------------->>    at scorecard.implementations.scoresImpl.scoreDateAlreadyExist(Int32 criteriaId, Int32 itemValueId, Int32 submissionId, String periodDate)
   at scorecard.ui.controls.capturewithhirachy.dateAlreadyCaptured(Int32 submissionId, String periodDate, Int32 criteriaId, Int32 itemValId)
   at scorecard.ui.controls.capturewithhirachy.calculateValues(Boolean saveForLater) Source ------->>scorecard Inner Exception ------- >>
 *******************************************************************************************************************
16 January 2015 ************************************************LOG  LOG ****************************************************************

Parameter count does not match Parameter Value count. Stack Trace ------------->>    at Microsoft.ApplicationBlocks.Data.SqlHelper.AssignParameterValues(SqlParameter[] commandParameters, Object[] parameterValues)
   at Microsoft.ApplicationBlocks.Data.SqlHelper.ExecuteScalar(SqlConnection connection, String spName, Object[] parameterValues)
   at scorecard.implementations.scoresImpl.scoreDateAlreadyExist(Int32 criteriaId, Int32 itemValueId, Int32 submissionId, String periodDate) Source ------->>scorecard Inner Exception ------- >>
 *******************************************************************************************************************
16 January 2015 ************************************************LOG  LOG ****************************************************************

Object reference not set to an instance of an object. Stack Trace ------------->>    at scorecard.implementations.scoresImpl.scoreDateAlreadyExist(Int32 criteriaId, Int32 itemValueId, Int32 submissionId, String periodDate)
   at scorecard.ui.controls.capturewithhirachy.dateAlreadyCaptured(Int32 submissionId, String periodDate, Int32 criteriaId, Int32 itemValId)
   at scorecard.ui.controls.capturewithhirachy.calculateValues(Boolean saveForLater) Source ------->>scorecard Inner Exception ------- >>
 *******************************************************************************************************************
20 January 2015 ************************************************LOG  LOG ****************************************************************

Index was out of range. Must be non-negative and less than the size of the collection.
Parameter name: index Stack Trace ------------->>    at System.Collections.ArrayList.get_Item(Int32 index)
   at scorecard.ui.controls.bulkupload.uploadFile.UploadFile() Source ------->>mscorlib Inner Exception ------- >>
 *******************************************************************************************************************
23 January 2015 ************************************************LOG  LOG ****************************************************************

Invalid attempt to read when no data is present. Stack Trace ------------->>    at System.Data.SqlClient.SqlDataReader.CheckDataIsReady(Int32 columnIndex, Boolean allowPartiallyReadColumn, Boolean permitAsync, String methodName)
   at System.Data.SqlClient.SqlDataReader.TryReadColumn(Int32 i, Boolean setTimeout, Boolean allowPartiallyReadColumn)
   at System.Data.SqlClient.SqlDataReader.GetValueInternal(Int32 i)
   at System.Data.SqlClient.SqlDataReader.GetValue(Int32 i)
   at scorecard.implementations.companyImpl.getCompanyAccountDetails(Int32 companyId) Source ------->>System.Data Inner Exception ------- >>
 *******************************************************************************************************************
23 January 2015 ************************************************LOG  LOG ****************************************************************

Invalid attempt to read when no data is present. Stack Trace ------------->>    at System.Data.SqlClient.SqlDataReader.CheckDataIsReady(Int32 columnIndex, Boolean allowPartiallyReadColumn, Boolean permitAsync, String methodName)
   at System.Data.SqlClient.SqlDataReader.TryReadColumn(Int32 i, Boolean setTimeout, Boolean allowPartiallyReadColumn)
   at System.Data.SqlClient.SqlDataReader.GetValueInternal(Int32 i)
   at System.Data.SqlClient.SqlDataReader.GetValue(Int32 i)
   at scorecard.implementations.companyImpl.getCompanyAccountDetails(Int32 companyId) Source ------->>System.Data Inner Exception ------- >>
 *******************************************************************************************************************
23 January 2015 ************************************************LOG  LOG ****************************************************************

Invalid attempt to read when no data is present. Stack Trace ------------->>    at System.Data.SqlClient.SqlDataReader.CheckDataIsReady(Int32 columnIndex, Boolean allowPartiallyReadColumn, Boolean permitAsync, String methodName)
   at System.Data.SqlClient.SqlDataReader.TryReadColumn(Int32 i, Boolean setTimeout, Boolean allowPartiallyReadColumn)
   at System.Data.SqlClient.SqlDataReader.GetValueInternal(Int32 i)
   at System.Data.SqlClient.SqlDataReader.GetValue(Int32 i)
   at scorecard.implementations.companyImpl.getCompanyAccountDetails(Int32 companyId) Source ------->>System.Data Inner Exception ------- >>
 *******************************************************************************************************************
01 February 2015 ************************************************LOG  LOG ****************************************************************

Parameter count does not match Parameter Value count. Stack Trace ------------->>    at Microsoft.ApplicationBlocks.Data.SqlHelper.AssignParameterValues(SqlParameter[] commandParameters, Object[] parameterValues)
   at Microsoft.ApplicationBlocks.Data.SqlHelper.ExecuteScalar(SqlConnection connection, String spName, Object[] parameterValues)
   at scorecard.implementations.scoresImpl.scoreDateAlreadyExist(Int32 criteriaId, Int32 itemValueId, Int32 submissionId, String periodDate) Source ------->>scorecard Inner Exception ------- >>
 *******************************************************************************************************************
01 February 2015 ************************************************LOG  LOG ****************************************************************

Object reference not set to an instance of an object. Stack Trace ------------->>    at scorecard.implementations.scoresImpl.scoreDateAlreadyExist(Int32 criteriaId, Int32 itemValueId, Int32 submissionId, String periodDate)
   at scorecard.ui.controls.capturewithhirachy.dateAlreadyCaptured(Int32 submissionId, String periodDate, Int32 criteriaId, Int32 itemValId)
   at scorecard.ui.controls.capturewithhirachy.calculateValues(Boolean saveForLater) Source ------->>scorecard Inner Exception ------- >>
 *******************************************************************************************************************
01 February 2015 ************************************************LOG  LOG ****************************************************************

Parameter count does not match Parameter Value count. Stack Trace ------------->>    at Microsoft.ApplicationBlocks.Data.SqlHelper.AssignParameterValues(SqlParameter[] commandParameters, Object[] parameterValues)
   at Microsoft.ApplicationBlocks.Data.SqlHelper.ExecuteScalar(SqlConnection connection, String spName, Object[] parameterValues)
   at scorecard.implementations.scoresImpl.scoreDateAlreadyExist(Int32 criteriaId, Int32 itemValueId, Int32 submissionId, String periodDate) Source ------->>scorecard Inner Exception ------- >>
 *******************************************************************************************************************
01 February 2015 ************************************************LOG  LOG ****************************************************************

Object reference not set to an instance of an object. Stack Trace ------------->>    at scorecard.implementations.scoresImpl.scoreDateAlreadyExist(Int32 criteriaId, Int32 itemValueId, Int32 submissionId, String periodDate)
   at scorecard.ui.controls.capturewithhirachy.dateAlreadyCaptured(Int32 submissionId, String periodDate, Int32 criteriaId, Int32 itemValId)
   at scorecard.ui.controls.capturewithhirachy.calculateValues(Boolean saveForLater) Source ------->>scorecard Inner Exception ------- >>
 *******************************************************************************************************************
01 February 2015 ************************************************LOG  LOG ****************************************************************

Parameter count does not match Parameter Value count. Stack Trace ------------->>    at Microsoft.ApplicationBlocks.Data.SqlHelper.AssignParameterValues(SqlParameter[] commandParameters, Object[] parameterValues)
   at Microsoft.ApplicationBlocks.Data.SqlHelper.ExecuteScalar(SqlConnection connection, String spName, Object[] parameterValues)
   at scorecard.implementations.scoresImpl.scoreDateAlreadyExist(Int32 criteriaId, Int32 itemValueId, Int32 submissionId, String periodDate) Source ------->>scorecard Inner Exception ------- >>
 *******************************************************************************************************************
01 February 2015 ************************************************LOG  LOG ****************************************************************

Object reference not set to an instance of an object. Stack Trace ------------->>    at scorecard.implementations.scoresImpl.scoreDateAlreadyExist(Int32 criteriaId, Int32 itemValueId, Int32 submissionId, String periodDate)
   at scorecard.ui.controls.capturewithhirachy.dateAlreadyCaptured(Int32 submissionId, String periodDate, Int32 criteriaId, Int32 itemValId)
   at scorecard.ui.controls.capturewithhirachy.calculateValues(Boolean saveForLater) Source ------->>scorecard Inner Exception ------- >>
 *******************************************************************************************************************
01 February 2015 ************************************************LOG  LOG ****************************************************************

Parameter count does not match Parameter Value count. Stack Trace ------------->>    at Microsoft.ApplicationBlocks.Data.SqlHelper.AssignParameterValues(SqlParameter[] commandParameters, Object[] parameterValues)
   at Microsoft.ApplicationBlocks.Data.SqlHelper.ExecuteScalar(SqlConnection connection, String spName, Object[] parameterValues)
   at scorecard.implementations.scoresImpl.scoreDateAlreadyExist(Int32 criteriaId, Int32 itemValueId, Int32 submissionId, String periodDate) Source ------->>scorecard Inner Exception ------- >>
 *******************************************************************************************************************
01 February 2015 ************************************************LOG  LOG ****************************************************************

Object reference not set to an instance of an object. Stack Trace ------------->>    at scorecard.implementations.scoresImpl.scoreDateAlreadyExist(Int32 criteriaId, Int32 itemValueId, Int32 submissionId, String periodDate)
   at scorecard.ui.controls.capturewithhirachy.dateAlreadyCaptured(Int32 submissionId, String periodDate, Int32 criteriaId, Int32 itemValId)
   at scorecard.ui.controls.capturewithhirachy.calculateValues(Boolean saveForLater) Source ------->>scorecard Inner Exception ------- >>
 *******************************************************************************************************************
01 February 2015 ************************************************LOG  LOG ****************************************************************

Parameter count does not match Parameter Value count. Stack Trace ------------->>    at Microsoft.ApplicationBlocks.Data.SqlHelper.AssignParameterValues(SqlParameter[] commandParameters, Object[] parameterValues)
   at Microsoft.ApplicationBlocks.Data.SqlHelper.ExecuteScalar(SqlConnection connection, String spName, Object[] parameterValues)
   at scorecard.implementations.scoresImpl.scoreDateAlreadyExist(Int32 criteriaId, Int32 itemValueId, Int32 submissionId, String periodDate) Source ------->>scorecard Inner Exception ------- >>
 *******************************************************************************************************************
01 February 2015 ************************************************LOG  LOG ****************************************************************

Object reference not set to an instance of an object. Stack Trace ------------->>    at scorecard.implementations.scoresImpl.scoreDateAlreadyExist(Int32 criteriaId, Int32 itemValueId, Int32 submissionId, String periodDate)
   at scorecard.ui.controls.capturewithhirachy.dateAlreadyCaptured(Int32 submissionId, String periodDate, Int32 criteriaId, Int32 itemValId)
   at scorecard.ui.controls.capturewithhirachy.calculateValues(Boolean saveForLater) Source ------->>scorecard Inner Exception ------- >>
 *******************************************************************************************************************
01 February 2015 ************************************************LOG  LOG ****************************************************************

Parameter count does not match Parameter Value count. Stack Trace ------------->>    at Microsoft.ApplicationBlocks.Data.SqlHelper.AssignParameterValues(SqlParameter[] commandParameters, Object[] parameterValues)
   at Microsoft.ApplicationBlocks.Data.SqlHelper.ExecuteScalar(SqlConnection connection, String spName, Object[] parameterValues)
   at scorecard.implementations.scoresImpl.scoreDateAlreadyExist(Int32 criteriaId, Int32 itemValueId, Int32 submissionId, String periodDate) Source ------->>scorecard Inner Exception ------- >>
 *******************************************************************************************************************
01 February 2015 ************************************************LOG  LOG ****************************************************************

Object reference not set to an instance of an object. Stack Trace ------------->>    at scorecard.implementations.scoresImpl.scoreDateAlreadyExist(Int32 criteriaId, Int32 itemValueId, Int32 submissionId, String periodDate)
   at scorecard.ui.controls.capturewithhirachy.dateAlreadyCaptured(Int32 submissionId, String periodDate, Int32 criteriaId, Int32 itemValId)
   at scorecard.ui.controls.capturewithhirachy.calculateValues(Boolean saveForLater) Source ------->>scorecard Inner Exception ------- >>
 *******************************************************************************************************************