<script type="text/javascript"><!--
google_ad_client = "ca-pub-3811101359216804";
/* In Text Image 250x250 */
google_ad_slot = "0704986865";
google_ad_width = 250;
google_ad_height = 250;
//-->
</script>
<script type="text/javascript"
src="http://pagead2.googlesyndication.com/pagead/show_ads.js">
</script>